^C:\USERS\NTATKO\ONEDRIVE\DOCUMENTS\SCHOOL\2016 SP\COMPUTER SCIENCE 2\HOMEWORK4\HOMEWORK4\HOMEWORK4\LINKEDLIST.CPP
/c /ZI /nologo /W3 /WX- /sdl /Od /Oy- /D WIN32 /D _DEBUG /D _CONSOLE /D _UNICODE /D UNICODE /Gm /EHsc /RTC1 /MDd /GS /fp:precise /Zc:wchar_t /Zc:forScope /Zc:inline /Fo"DEBUG\\" /Fd"DEBUG\VC140.PDB" /Gd /TP /analyze- C:\USERS\NTATKO\ONEDRIVE\DOCUMENTS\SCHOOL\2016 SP\COMPUTER SCIENCE 2\HOMEWORK4\HOMEWORK4\HOMEWORK4\LINKEDLIST.CPP
^C:\USERS\NTATKO\ONEDRIVE\DOCUMENTS\SCHOOL\2016 SP\COMPUTER SCIENCE 2\HOMEWORK4\HOMEWORK4\HOMEWORK4\MAIN.CPP
/c /ZI /nologo /W3 /WX- /sdl /Od /Oy- /D WIN32 /D _DEBUG /D _CONSOLE /D _UNICODE /D UNICODE /Gm /EHsc /RTC1 /MDd /GS /fp:precise /Zc:wchar_t /Zc:forScope /Zc:inline /Fo"DEBUG\\" /Fd"DEBUG\VC140.PDB" /Gd /TP /analyze- C:\USERS\NTATKO\ONEDRIVE\DOCUMENTS\SCHOOL\2016 SP\COMPUTER SCIENCE 2\HOMEWORK4\HOMEWORK4\HOMEWORK4\MAIN.CPP
